{"rs":true,"data":{"total":192,"pages":20,"currentPage":1,"pageRow":10,"users":
[
    {
            "ID":"1462",
            "Name":"搜索内容",
            "Dept":"全公司",
            "Avatar":"http://test.staticoss.upesn.com/1/14623/201512/3/1449111464vXTV.jpg.thumb.jpg",
            "Url":"http://esn.fuwenfang.com/space/cons/index/id/14623"
        },
        {
            "ID":"450",
            "Name":"曹海龙",
            "Dept":"全公司",
            "Avatar":"http://test.staticoss.upesn.com/1/4507/201601/18/1453080583VG6s.jpg.thumb.jpg",
            "Url":"http://esn.fuwenfang.com/space/cons/index/id/4507"
        },
        {
            "ID":"448",
            "Name":"123456",
            "Dept":"研发部",
            "Avatar":"http://test.staticoss.upesn.com/1/4488/201508/17/1439801185r4SR.jpg.thumb.jpg",
            "Url":"http://esn.fuwenfang.com/space/cons/index/id/4488"
        },
        {
            "ID":"445557",
            "Name":"123222",
            "Dept":"研发部",
            "Avatar":"http://esn.fuwenfang.com/front/images/scrm/default_avatar.png",
            "Url":"http://esn.fuwenfang.com/space/cons/index/id/4487"
        },
        {
            "ID":"447",
            "Name":"刘王芳",
            "Dept":"全公司",
            "Avatar":"http://esn.fuwenfang.com/front/images/scrm/default_avatar.png",
            "Url":"http://esn.fuwenfang.com/space/cons/index/id/4472"
        },
        {
            "ID":"405550",
            "Name":"测试3",
            "Dept":"全公司",
            "Avatar":"http://esn.fuwenfang.com/front/images/scrm/default_avatar.png",
            "Url":"http://esn.fuwenfang.com/space/cons/index/id/4400"
        },
        {
            "ID":"439",
            "Name":"刘王芳",
            "Dept":"全公司",
            "Avatar":"http://test.staticoss.upesn.com/1/4339/201505/29/1432867053YB20.jpg.thumb.jpg",
            "Url":"http://esn.fuwenfang.com/space/cons/index/id/4339"
        },
        {
            "ID":"421",
            "Name":"aa",
            "Dept":"考勤测试部门",
            "Avatar":"http://esn.fuwenfang.com/front/images/scrm/default_avatar.png",
            "Url":"http://esn.fuwenfang.com/space/cons/index/id/4214"
        },
        {
            "ID":"414",
            "Name":"aa",
            "Dept":"考勤测试部门",
            "Avatar":"http://esn.fuwenfang.com/front/images/scrm/default_avatar.png",
            "Url":"http://esn.fuwenfang.com/space/cons/index/id/4194"
        },
        {
            "ID":"11141855",
            "Name":"张笑颜15",
            "Dept":"全公司",
            "Avatar":"http://esn.fuwenfang.com/front/images/scrm/default_avatar.png",
            "Url":"http://esn.fuwenfang.com/space/cons/index/id/4182"
        },
        {
            "ID":"111414",
            "Name":"aa",
            "Dept":"考勤测试部门",
            "Avatar":"http://esn.fuwenfang.com/front/images/scrm/default_avatar.png",
            "Url":"http://esn.fuwenfang.com/space/cons/index/id/4194"
        },
        {
            "ID":"111418",
            "Name":"张笑颜15",
            "Dept":"全公司",
            "Avatar":"http://esn.fuwenfang.com/front/images/scrm/default_avatar.png",
            "Url":"http://esn.fuwenfang.com/space/cons/index/id/4182"
        },
        {
            "ID":"11419",
            "Name":"11",
            "Dept":"全公司",
            "Avatar":"http://esn.fuwenfang.com/front/images/scrm/default_avatar.png",
            "Url":"http://esn.fuwenfang.com/space/cons/index/id/4139"
        }
    ]

}}